﻿[{
    "_id": "c-10",
    "_parentId": "b-10",
    "_type": "component",
    "_component": "twoColumn",
    "_classes": "clearFix",
    "_layout": "full",
    "title": "Introdução",
    "displayTitle": "",
    "body": "",
    "instruction": "",
    "_pageLevelProgress": {
      "_isEnabled": true
    },
    "fontSize": "4vmin",
    "lineHeight": "",
    "fontColor": "#ffffff",
    "leftColumnWidth": "35%",
    "rightColumnWidth": "65%",
    "marginTop": "0px",
    "imageLayout": "left",
    "text": "Pegamos o que aprendemos com dois bilhões de pessoas que usam nossas plataformas<sup>1</sup> e cinco milhões de empresas que anunciam conosco<sup>2</sup> para criar o Facebook IQ, nossa plataforma de informações. Ele foi criado para ajudar você a entender melhor seu público e desenvolver campanhas relevantes para as pessoas que deseja alcançar.<br><br>Neste curso, você conhecerá as três soluções de informações que compõem o Facebook IQ: estudos, ferramentas e recursos. Mostraremos como usar essas soluções individualmente ou combinadas, dependendo de suas metas comerciais.",
    "_graphic": {
      "alt": "Uma mulher no escritório olhando para uma tela de computador",
      "src": "course/en/images/01_introduction/01_module_one_cover.png",
      "attribution": ""
    },
    "imageHeading": "",
    "imageSubHeading": ""
  },
  {
    "_id": "c-20",
    "_parentId": "b-10",
    "_type": "component",
    "_component": "text",
    "_classes": "",
    "_layout": "full",
    "title": "",
    "displayTitle": "",
    "body": "<sup>1</sup><cite>Relatório de ganhos do Facebook, T2 2017</cite><br><sup>2</sup><cite>Dados do Facebook, abril de 2017</cite>",
    "instruction": "",
    "_pageLevelProgress": {
      "_isEnabled": false
    }
  },
  {
    "_id": "c-30",
    "_parentId": "b-20",
    "_type": "component",
    "_component": "flexbox-list",
    "_classes": "",
    "_layout": "full",
    "title": "Soluções de informações do Facebook IQ",
    "displayTitle": "Soluções de informações do Facebook IQ",
    "body": "",
    "_mainflex": "main",
    "show_header_boolean": false,
    "header_title": "Header Title",
    "header_fontsize": "38",
    "bodytitle_fontsize": "24",
    "body_fontsize": "16",
    "header_fontcolor": "#000000",
    "bodytitle_fontcolor": "#000000",
    "body_fontcolor": "#000000",
    "body_color": "#ffffff",
    "header_image": "course/en/images/flexboxlist/header_img.jpg",
    "instruction": "",
    "titleAnimation": "transition.slideRightIn",
    "bodyAnimation": "transition.slideLeftIn",
    "_pageLevelProgress": {
      "_isEnabled": true
    },
    "_items": [{
      "_row": [{
          "item_title": "ESTUDOS",
          "item_body": "Pessoas<br>Publicidade<br>Setores",
          "item_image": "course/en/images/01_introduction/02_1_studies.png"
        },
        {
          "item_title": "FERRAMENTAS",
          "item_body": "Cross Border Insights Finder<br>Insights to Go<br>Ferramenta Audience Insights",
          "item_image": "course/en/images/01_introduction/02_2_tools.png"
        },
        {
          "item_title": "RECURSOS",
          "item_body": "Central de Criativos<br>Facebook para Empresas<br>Instagram para Empresas<br>Facebook Blueprint",
          "item_image": "course/en/images/01_introduction/02_3_services.png"
        }

      ]
    }]
  },
  {
    "_id": "c-40",
    "_parentId": "b-30",
    "_type": "component",
    "_component": "co-jump",
    "_classes": "color-test",
    "_preLinkBody": "A seguir: ",
    "_linkBody": "saiba como navegar e usar os estudos de pesquisa do Facebook IQ",
    "_postLinkBody": ".",
    "_link": "#/id/co-100",
    "_graphic": "adapt/css/assets/icon_nextPage.png",
    "_pageLevelProgress": {
      "_isEnabled": false
    }
  },
  {
    "_id": "c-50",
    "_parentId": "b-40",
    "_type": "component",
    "_component": "twoColumn",
    "_classes": "clearFix",
    "_layout": "full",
    "title": "Introdução aos estudos de pesquisa do Facebook IQ",
    "displayTitle": "",
    "body": "",
    "instruction": "",
    "_pageLevelProgress": {
      "_isEnabled": true
    },
    "fontSize": "4vmin",
    "lineHeight": "",
    "fontColor": "#ffffff",
    "leftColumnWidth": "35%",
    "rightColumnWidth": "65%",
    "marginTop": "0px",
    "imageLayout": "right",
    "text": "Para criar os estudos do Facebook IQ, começamos com dados anônimos e agregados sobre dois bilhões de pessoas que usam nossa plataforma. Esses dados fornecem “quem,” “o que” e “como”. Então, fizemos parcerias com empresas de pesquisa de terceiros para mostrar o “motivo” por trás dos comportamentos e motivações das pessoas.<br><br>Os estudos podem ajudar você a entender os comportamentos das pessoas, atitudes e valores, inclusive as relações delas com as marcas.",
    "_graphic": {
      "alt": "Três mulheres no escritório olhando para uma tela de computador",
      "src": "course/en/images/02_facebook_iq_research_studies/01_module_two_cover.png",
      "attribution": ""
    },
    "imageHeading": "",
    "imageSubHeading": ""
  },
  {
    "_id": "c-60",
    "_parentId": "b-40",
    "_type": "component",
    "_component": "accordion",
    "_classes": "",
    "_layout": "full",
    "title": "",
    "displayTitle": "",
    "body": " Os estudos são divididos em três áreas de foco — People Insights, Advertising Insights e Insights de Setores:",
    "instruction": "",
    "_pageLevelProgress": {
      "_isEnabled": false
    },
    "_items": [{
        "title": "<b>People Insights</b>",
        "body": "Analisa como entender o comportamento do consumidor entre gerações, localizações, dispositivos e tempo.<br><br>Exemplos de estudos anteriores incluem ver as tendências de moda primavera/verão no Instagram, mudanças na cultura alimentar no Facebook e como as pessoas se movimentam entre celular e TV.",
        "_graphic": {
          "src": "",
          "alt": ""
        }
      },
      {
        "title": "<b> Advertising Insights</b>",
        "body": "Examina a função da medição em campanhas e sua influência e valor ao desenvolver um marketing eficiente.<br><br>Exemplos de estudos anteriores incluem como criar histórias eficientes em suas campanhas, como definir suas métricas mais importantes e como o streaming dos serviços tem afetado a publicidade tradicional.",
        "_graphic": {
          "src": "",
          "alt": ""
        }
      },
      {
        "title": "<b>Insights de Setores</b>",
        "body": "Analisa o comportamento do consumidor em indústrias específicas, inclusive a automotiva, bens de consumo embalados, entretenimento e mídia, serviços financeiros, jogos, varejo, tecnologia e conectividade, e viagem.<br><br>Exemplos de estudos anteriores incluem o crescimento do número de compradores de automóveis que preferem experiências de compra por celular, tendências globais de jogos em celular e exames dos hábitos de planejamento de visitantes estrangeiros à China.",
        "_graphic": {
          "src": "",
          "alt": ""
        }
      }
    ]
  },
  {
    "_id": "c-70",
    "_parentId": "b-50",
    "_type": "component",
    "_component": "graphic",
    "_classes": "",
    "_layout": "full",
    "title": "Estudos",
    "displayTitle": "",
    "body": "Para acessar os estudos, vá para <b><a href='https://facebook.com/iq' target='_blank'>a plataforma Facebook IQ</a></b> e, na barra de navegação, clique no tipo de informação sobre a qual você deseja saber mais.",
    "instruction": "",
    "_pageLevelProgress": {
      "_isEnabled": true
    },
    "_graphic": {
      "alt": "Captura de tela das soluções do Insights",
      "src": "course/en/images/02_facebook_iq_research_studies/02_insightssolutions_studies.png",
      "attribution": ""
    }
  },
  {
    "_id": "c-80",
    "_parentId": "b-60",
    "_type": "component",
    "_component": "graphic",
    "_classes": "",
    "_layout": "full",
    "title": "",
    "displayTitle": "",
    "body": "Aqui, você pode filtrar mais os estudos por subcategoria ou rolar para visualizar todos os estudos relacionados a essa área de foco.",
    "instruction": "",
    "_pageLevelProgress": {
      "_isEnabled": false
    },
    "_graphic": {
      "alt": "Captura de tela das categorias do Insights",
      "src": "course/en/images/02_facebook_iq_research_studies/03_studies_insightscategories.png",
      "attribution": ""
    }
  },
  {
    "_id": "c-100",
    "_parentId": "b-80",
    "_type": "component",
    "_component": "graphic",
    "_classes": "",
    "_layout": "full",
    "title": "Artigos",
    "displayTitle": "",
    "body": "Também é possível acessar os estudos clicando em <b>Encontrar artigos</b> no canto superior direito da barra de navegação. Aqui, você conseguirá filtrar os estudos de pesquisa por informações, setores, região, plataforma e tipo de conteúdo.",
    "instruction": "",
    "_pageLevelProgress": {
      "_isEnabled": true
    },
    "_graphic": {
      "alt": "Exemplo do botão de pesquisa para localizar artigos",
      "src": "course/en/images/02_facebook_iq_research_studies/04_findarticles_searchbutton.png",
      "attribution": ""
    }
  },
  {
    "_id": "c-110",
    "_parentId": "b-90",
    "_type": "component",
    "_component": "graphic",
    "_classes": "",
    "_layout": "full",
    "title": "",
    "displayTitle": "",
    "body": "",
    "instruction": "",
    "_pageLevelProgress": {
      "_isEnabled": false
    },
    "_graphic": {
      "alt": "Captura de tela dos estudos com filtro para localizar artigos",
      "src": "course/en/images/02_facebook_iq_research_studies/05_findarticles_filterstudies.png",
      "attribution": ""
    }
  },
  {
    "_id": "c-120",
    "_parentId": "b-100",
    "_type": "component",
    "_component": "text",
    "_classes": "",
    "_layout": "full",
    "title": "",
    "displayTitle": "",
    "body": "Os estudos destacam as mudanças nos comportamentos, atitudes e valores das pessoas. Entendendo melhor seu público, você pode gerar resultados impactantes criando campanhas relevantes direcionadas para ele.<br><br>Geralmente, você verá que mais de um artigo ou estudo oferece informações que serão úteis para sua campanha de marketing. Por exemplo, uma marca que desenvolve uma campanha para impulsionar as vendas de pacotes de férias pode aproveitar os estudos na subcategoria <b>People Insights > Moments</b> e <b>Insights de Setores > Varejo</b>.<br><br>Sempre estamos atualizando nosso conteúdo e lançando novos artigos, portanto, é uma boa ideia visitar com frequência e também assinar nosso boletim informativo.",
    "instruction": "",
    "_pageLevelProgress": {
      "_isEnabled": false
    }
  },
  {
    "_id": "c-130",
    "_parentId": "b-110",
    "_type": "component",
    "_component": "co-jump",
    "_classes": "color-test",
    "_preLinkBody": "A seguir: conheça as diferentes",
    "_linkBody": "ferramentas e recursos do Facebook IQ",
    "_postLinkBody": " que estão disponíveis e como usá-los.",
    "_link": "#/id/co-150",
    "_graphic": "adapt/css/assets/icon_nextPage.png",
    "_pageLevelProgress": {
      "_isEnabled": false
    }
  },
  {
    "_id": "c-140",
    "_parentId": "b-120",
    "_type": "component",
    "_component": "twoColumn",
    "_classes": "clearFix",
    "_layout": "full",
    "title": "Introdução às ferramentas e recursos do Facebook IQ",
    "displayTitle": "",
    "body": "",
    "instruction": "",
    "_pageLevelProgress": {
      "_isEnabled": true
    },
    "fontSize": "4vmin",
    "lineHeight": "",
    "fontColor": "#ffffff",
    "leftColumnWidth": "35%",
    "rightColumnWidth": "65%",
    "marginTop": "0px",
    "imageLayout": "right",
    "text": "Você pode usar as ferramentas interativas do Facebook IQ para entender melhor seu público, região e setor. Essas ferramentas interativas incluem:<br><br><ul><li>Cross Border Insights Finder</li><li>Insights to Go</li><li>Audience Insights</li></ul><br>Vejamos com atenção cada situação.",
    "_graphic": {
      "alt": "Três mulheres no escritório olhando para uma tela de computador",
      "src": "course/en/images/03_facebook_iq_tools/01_module_three_cover.png",
      "attribution": ""
    },
    "imageHeading": "",
    "imageSubHeading": ""
  },
  {
    "_id": "c-150",
    "_parentId": "b-130",
    "_type": "component",
    "_component": "text",
    "_classes": "",
    "_layout": "full",
    "title": "Cross Border Insights Finder",
    "displayTitle": "Cross Border Insights Finder",
    "body": "",
    "instruction": "",
    "_pageLevelProgress": {
      "_isEnabled": true
    }
  },
  {
    "_id": "c-160",
    "_parentId": "b-130",
    "_type": "component",
    "_component": "text",
    "_classes": "",
    "_layout": "right",
    "title": "",
    "displayTitle": "",
    "body": "O Cross Border Insights Finder<b> </b>é um recurso para todo tipo de empresas internacionais para explorar e viabilizar oportunidades de crescimento além das fronteiras. Encontre e alcance novos públicos, onde quer que estejam, comparando dados de países baseados no desempenho de campanhas anteriores nas plataformas do Facebook, Instagram e Audience Network.<br><br>Com o Cross Border Insights Finder, você pode explorar um ponto de vista para identificar, mapear e aumentar novas oportunidades de crescimento no mundo inteiro. Você conseguirá identificar facilmente quais mercados têm mais probabilidade de converter, custam menos e encontram menos anúncios para planejar melhor suas campanhas internacionais, sendo elas destinadas a um país vizinho ou a uma região inteira do outro lado do planeta.",
    "instruction": "",
    "_pageLevelProgress": {
      "_isEnabled": false
    }
  },
  {
    "_id": "c-170",
    "_parentId": "b-130",
    "_type": "component",
    "_component": "framed-video",
    "_classes": "",
    "_layout": "left",
    "title": "",
    "displayTitle": "",
    "body": "",
    "_videoPosition": "top",
    "_componentHeight": "610",
    "_videoPt": {
      "x": "0px",
      "y": "0px"
    },
    "_showControls": true,
    "_mute": true,
    "instruction": "",
    "_items": [{
        "video": "<video controls poster='course/en/video/03_facebook_iq_tools/01_live_demo_home_page_createad_video_demo_mobile_poster.png' id='vid' width='300px' controls='controls'><source src='course/en/video/03_facebook_iq_tools/01_live_demo_home_page_createad_video_demo_mobile.mp4'></video>"
      }

    ]
  },
  {
    "_id": "c-180",
    "_parentId": "b-135",
    "_type": "component",
    "_component": "text",
    "_classes": "",
    "_layout": "full",
    "title": "",
    "displayTitle": "",
    "body": "Para acessar a ferramenta, você pode clicar em <b>Cross Border Insights Finder</b> no menu suspenso <b>Ferramentas e recursos</b> ou ir para <a href='https://crossborderinsightsfinder.com' target='_blank'>https://crossborderinsightsfinder.com/</a>. Então, será possível filtrar os dados com base em seu <b>mercado de exportação</b>, <b>indústria</b> e <b>objetivo da campanha</b>.<br><br>Se você estiver interessado em saber mais sobre como expandir sua empresa com o Facebook, veja como nossas ferramentas de alcance, pesquisa e direcionamento funcionam para ajudá-lo a se conectar com as pessoas certas e realmente expandir sua empresa em nosso curso <a href='https://fb.me/xbm-course' target='_blank'>Expandir as fronteiras com o Facebook</a>.",
    "instruction": "",
    "_pageLevelProgress": {
      "_isEnabled": false
    }
  },
  {
    "_id": "c-190",
    "_parentId": "b-140",
    "_type": "component",
    "_component": "media",
    "_classes": "",
    "_layout": "full",
    "title": "Insights to Go",
    "displayTitle": "Insights to Go",
    "body": "O Insights to Go é um mecanismo de descoberta de dados do Facebook que você pode usar para classificar as estatísticas e comprovar pontos relevantes para sua campanha. Os pontos de dados nessa interface podem ser classificados ou filtrados por região, indústria, segmento de público, canal de mídia, momento cultural e estratégia de campanha. Essa ferramenta pode ser acessada em qualquer dispositivo e é composta de cartões de dados que podem ser baixados para fazer apresentações e compartilhados diretamente a partir da ferramenta.<br><br>Para usar o Insights to Go:<br><br><ol><li>Passe o mouse sobre Ferramentas e recursos na barra de navegação superior e clique em Insights to Go.<li>Clique no botão <b>Começar</b>.</li><li>Aplique filtros ou use a barra de pesquisa para classificar as informações por táticas de <b>região</b>, <b>indústria</b>, <b>pessoas</b> (público), <b>momento sazonal</b> e <b>planejamento da campanha</b>.</li><li>Encontre as estatísticas do Facebook que alimentam o criativo e a tomada de decisão da campanha.</li><li>Clique em um cartão de dados para baixar uma versão multimídia, compartilhar com um cliente, colega ou Facebook, ou para explorar informações relacionadas aos cartões Go ou estudos do Facebook IQ.</li></ol><br><br>É possível ver essas etapas em ação aqui:",
    "instruction": "",
    "_pageLevelProgress": {
      "_isEnabled": true
    },
    "_setCompletionOn": "inview",
    "_useClosedCaptions": true,
    "_startLanguage": "en",
    "_media": {
      "mp4": "course/en/video/03_facebook_iq_tools/02_insights_to_go_explainer_video.mp4",
      "ogv": "",
      "poster": "course/en/video/03_facebook_iq_tools/02_insights_to_go_explainer_video_poster.png",
      "cc": [{
          "srclang": "en",
          "src": "course/en/video/03_facebook_iq_tools/02_insights_to_go_explainer_video.vtt"
        },
        {
          "srclang": "pl",
          "src": "course/en/video/03_facebook_iq_tools/02_insights_to_go_explainer_video_sub-pl.vtt"
        }
      ]
    },
    "_transcript": {
      "_setCompletionOnView": false,
      "_inlineTranscript": false,
      "_externalTranscript": false,
      "inlineTranscriptButton": "Transcrição",
      "inlineTranscriptCloseButton": "Fechar transcrição",
      "inlineTranscriptBody": "O texto do corpo da transcrição deve entrar aqui",
      "transcriptLinkButton": "Transcrição",
      "transcriptLink": "assets/transcript.pdf"
    },
    "_playerOptions": {
      "poster": "",
      "showPosterWhenEnded": false,
      "defaultVideoWidth": 480,
      "defaultVideoHeight": 270,
      "videoWidth": -1,
      "videoHeight": -1,
      "defaultAudioWidth": 400,
      "defaultAudioHeight": 30,
      "defaultSeekBackwardInterval": "(media.duration * 0.05)",
      "defaultSeekForwardInterval": "(media.duration * 0.05)",
      "audioWidth": -1,
      "audioHeight": -1,
      "startVolume": 0.8,
      "loop": false,
      "autoRewind": true,
      "enableAutosize": true,
      "alwaysShowHours": false,
      "showTimecodeFrameCount": false,
      "framesPerSecond": 25,
      "autosizeProgress": true,
      "alwaysShowControls": false,
      "hideVideoControlsOnLoad": false,
      "clickToPlayPause": true,
      "iPadUseNativeControls": false,
      "iPhoneUseNativeControls": false,
      "AndroidUseNativeControls": false,
      "features": ["playpause", "current", "progress", "duration", "tracks", "volume", "fullscreen"],
      "isVideo": true,
      "enableKeyboard": true,
      "pauseOtherPlayers": true,
      "startLanguage": "",
      "tracksText": "mejs.i18n.t('Captions/Subtitles')",
      "hideCaptionsButtonWhenEmpty": true,
      "toggleCaptionsButtonWhenOnlyOne": false,
      "slidesSelector": ""
    }
  },
  {
    "_id": "c-200",
    "_parentId": "b-150",
    "_type": "component",
    "_component": "text",
    "_classes": "",
    "_layout": "full",
    "title": "Audience Insights",
    "displayTitle": "Audience Insights",
    "body": "O Audience Insights permite explorar dados sobre os comportamentos e interesses de pessoas reais. Isso pode ajudar no planejamento da campanha e/ou validar uma informação. Conheça as vantagens do Audience Insights e saiba como acessar essa ferramenta no curso <a href='https://fb.me/audience-insights-course' target='_blank'>Audience Insights</a>.<br><br>Depois de você ter se familiarizado com essas ferramentas, e usado-as para saber mais sobre o seu público, o Facebook IQ oferece diversos recursos que podem ajudar você a dar vida às suas ideias.",
    "instruction": "",
    "_pageLevelProgress": {
      "_isEnabled": true
    }
  },
  {
    "_id": "c-201",
    "_parentId": "b-151",
    "_type": "component",
    "_component": "graphic",
    "_classes": "",
    "_layout": "full",
    "title": "Recursos",
    "displayTitle": "Recursos",
    "body": "<h2>Central de Criativos</h2><br>A <a href='https://business.facebook.com/ads/creativehub/home/' target='_blank'>Central de Criativos</a> é um site onde você pode criar modelos dos seus anúncios, testar diferentes formatos e posicionamentos, e compartilhar esses modelos com outras pessoas.",
    "instruction": "",
    "_pageLevelProgress": {
      "_isEnabled": true
    },
    "_graphic": {
      "alt": "Exemplo do botão de pesquisa para localizar artigos",
      "src": "course/en/images/03_facebook_iq_tools/creative_hub.png",
      "attribution": ""
    }
  },
  {
    "_id": "c-202",
    "_parentId": "b-152",
    "_type": "component",
    "_component": "text",
    "_classes": "",
    "_layout": "full",
    "title": "",
    "displayTitle": "",
    "body": "<h2>Facebook para Empresas</h2><br>O site do <a href='https://www.facebook.com/business' target='_blank'>Facebook para Empresas</a> contém informações e inspiração para ajudar você a configurar sua Página do Facebook para Empresas, e dicas sobre como usar todos os recursos e ferramentas do Facebook para se conectar com os seus clientes.<br><br><h2>Instagram para Empresas</h2><br>O <a href='https://business.instagram.com/' target='_blank'>Instagram para Empresas</a> ajudará você a descobrir a abordagem visual única capaz de conectar um anúncio do Instagram aos clientes.<br><br><h2>Facebook Blueprint</h2><br>O <a href='https://www.facebookblueprint.com/' target='_blank'>Facebook Blueprint</a> é uma parte importante dos recursos do Facebook IQ, sempre adicionando novos cursos e atualizando os existentes para ajudar você a encontrar seu público, criar sua mensagem e entender os resultados das suas campanhas.",
    "instruction": "",
    "_pageLevelProgress": {
      "_isEnabled": false
    }
  },
  {
    "_id": "c-210",
    "_parentId": "b-160",
    "_type": "component",
    "_component": "co-jump",
    "_classes": "color-test",
    "_preLinkBody": "A seguir:",
    "_linkBody": "como experimentar tudo junto",
    "_postLinkBody": " combinando as ferramentas e recursos do Facebook IQ.",
    "_link": "#/id/co-200",
    "_graphic": "adapt/css/assets/icon_nextPage.png",
    "_pageLevelProgress": {
      "_isEnabled": false
    }
  },
  {
    "_id": "c-260",
    "_parentId": "b-210",
    "_type": "component",
    "_component": "twoColumn",
    "_classes": "clearFix",
    "_layout": "full",
    "title": "Introdução - Reunindo tudo",
    "displayTitle": "",
    "body": "",
    "instruction": "",
    "_pageLevelProgress": {
      "_isEnabled": true
    },
    "fontSize": "4vmin",
    "lineHeight": "",
    "fontColor": "#ffffff",
    "leftColumnWidth": "35%",
    "rightColumnWidth": "65%",
    "marginTop": "68px",
    "imageLayout": "left",
    "text": "Não há um modo de usar o Facebook IQ ao reunir informações. Você pode usar os estudos, ferramentas e recursos separadamente, junto ou com diferentes combinações. Para começar, é útil ver sua campanha de modo amplo.",
    "_graphic": {
      "alt": "Homem em espaço de trabalho aberto trabalhando no computador",
      "src": "course/en/images/05_tying_it_all_together/01_module_five_cover.png",
      "attribution": ""
    },
    "imageHeading": "",
    "imageSubHeading": ""
  },
  {
    "_id": "c-270",
    "_parentId": "b-220",
    "_type": "component",
    "_component": "animate-text-blocks",
    "_classes": "",
    "_layout": "full",
    "title": "",
    "displayTitle": "",
    "body": "",
    "instruction": "",
    "backgroundColor": "#d0dbfa,#d0dbfa,#d0dbfa,#d0dbfa,#d0dbfa,#d0dbfa",
    "_animationOnView": "slide,fade,stagger",
    "_cornerRadius": "4px",
    "_spacing": "10px",
    "_pageLevelProgress": {
      "_isEnabled": false
    },
    "_items": [{
        "item_title": "",
        "body": "1. Estabeleça sua meta final. O que você está tentando conseguir com sua campanha?"
      },
      {
        "item_title": "",
        "body": "2. Identifique o tipo de informação necessária para realizar o objetivo."
      },
      {
        "item_title": "",
        "body": "3. Use as soluções de informação do Facebook IQ (estudos, ferramentas, recursos) para encontrar as informações."
      }
    ]
  },
  {
    "_id": "c-280",
    "_parentId": "b-230",
    "_type": "component",
    "_component": "text",
    "_classes": "",
    "_layout": "full",
    "title": "",
    "displayTitle": "",
    "body": "Vamos analisar duas situações hipotéticas...",
    "instruction": "",
    "_pageLevelProgress": {
      "_isEnabled": false
    }
  },
  {
    "_id": "c-290",
    "_parentId": "b-240",
    "_type": "component",
    "_component": "twoColumn",
    "_classes": "clearFix",
    "_layout": "full",
    "title": "Proprietária de uma pequena empresa",
    "displayTitle": "Proprietária de uma pequena empresa",
    "body": "",
    "instruction": "",
    "_pageLevelProgress": {
      "_isEnabled": true
    },
    "fontSize": "4vmin",
    "lineHeight": "",
    "fontColor": "#ffffff",
    "leftColumnWidth": "35%",
    "rightColumnWidth": "65%",
    "marginTop": "12px",
    "imageLayout": "right",
    "text": "Camy é proprietária da Jasper's Boutique, uma loja de roupas pela Internet, com pedidos feitos pelo Correio. Uma das coisas mais importantes para sua empresa é seguir as tendências da moda para que ela possa usar seu tempo e recursos com sabedoria.<br><br>Camy segue blogs de moda para identificar novas tendências e decidir o que mostrar na loja online. Atualmente, ela anuncia no Facebook e, graças à ferramenta Audience Insights, ela está muito familiarizada com seus clientes, mas Camy deseja que sua próxima campanha alcance e conecte novas pessoas para desenvolver sua empresa.",
    "_graphic": {
      "alt": "Uma mulher faz fotos de lenços em uma caixa usando o celular.",
      "src": "course/en/images/05_tying_it_all_together/02_small_business_owner.png",
      "attribution": ""
    },
    "imageHeading": "",
    "imageSubHeading": ""
  },
  {
    "_id": "c-300",
    "_parentId": "b-250",
    "_type": "component",
    "_component": "flipCard",
    "_classes": "",
    "_layout": "full",
    "title": "",
    "displayTitle": "",
    "body": "Clique nos cartões abaixo para ver a jornada de Camy quando ela usa as informações do Facebook IQ para planejar sua campanha.",
    "instruction": "",
    "_pageLevelProgress": {
      "_isEnabled": false
    },
    "_items": [{
        "frontImageSrc": "",
        "frontHeading": "<center>Usando os recursos do FBIQ</center>",
        "fontSizeHeading": "24px",
        "fontSizeText": "14px",
        "frontImgTop": "24px",
        "frontImgbottom": "",
        "frontImgleft": "",
        "frontImgright": "",
        "frontImgWidth": "30%",
        "frontImgHeight": "",
        "frontImgOpacity": "1",
        "padding": "12px 24px",
        "fontColor": "#ffffff",
        "frontListOfOptions": [
          ""
        ],
        "frontFooter": "",
        "frontFooterColor": "#808080",
        "frontFooterPadding": "12px",
        "backHeading": "",
        "backListOfOptions": [
          "Camy pesquisa estudos para artigos recentes sobre moda na rede do Facebook. Ela descobre um artigo no People Insights que apresenta Eva Chen, editora-chefe da Lucky Magazine. Eva fala sobre como as marcas estão usando o Instagram para dar a seus clientes uma perspectiva interna de suas últimas ações e Camy começa a considerar anunciar no Instagram. Então, ela lê o artigo <i>Como otimizar o público que compra no Facebook e no Instagram</i> do Advertising Insights, que sugere que anunciando no Facebook e Instagram, ela alcançará um público maior, assim como usará o orçamento do marketing com mais eficiência."
        ],
        "textShadow": ""
      },
      {
        "frontImageSrc": "",
        "frontHeading": "<center>Ação</center>",
        "fontSizeHeading": "24px",
        "fontSizeText": "14px",
        "frontImgTop": "24px",
        "frontImgbottom": "",
        "frontImgleft": "",
        "frontImgright": "",
        "frontImgWidth": "30%",
        "frontImgHeight": "",
        "frontImgOpacity": "1",
        "padding": "12px 24px",
        "fontColor": "#ffffff",
        "frontListOfOptions": [
          ""
        ],
        "frontFooter": "",
        "frontFooterColor": "#808080",
        "frontFooterPadding": "12px",
        "backHeading": "",
        "backListOfOptions": [
          "Com base no que leu, Camy decide que além de criar uma presença da Jasper's Boutique no Instagram, ela se conectará a fashionistas e influenciadores na plataforma. Isso também inclui expandir sua publicidade apenas do Facebook para incluir o Instagram também."
        ],
        "textShadow": ""
      }
    ],
    "_flipType": "singleFlip",
    "_flipTime": 400
  },
  {
    "_id": "c-310",
    "_parentId": "b-260",
    "_type": "component",
    "_component": "text",
    "_classes": "",
    "_layout": "full",
    "title": "",
    "displayTitle": "",
    "body": "Com estudos e informações sobre o Facebook IQ, Camy descobriu um modo de alcançar mais clientes em potencial e, particularmente, aqueles que são tão apaixonados por moda quanto ela.",
    "instruction": "",
    "_pageLevelProgress": {
      "_isEnabled": false
    }
  },
  {
    "_id": "c-350",
    "_parentId": "b-300",
    "_type": "component",
    "_component": "twoColumn",
    "_classes": "clearFix",
    "_layout": "full",
    "title": "Chef em ascensão",
    "displayTitle": "Chef em ascensão",
    "body": "",
    "instruction": "",
    "_pageLevelProgress": {
      "_isEnabled": true
    },
    "fontSize": "4vmin",
    "lineHeight": "",
    "fontColor": "#ffffff",
    "leftColumnWidth": "35%",
    "rightColumnWidth": "65%",
    "marginTop": "45px",
    "imageLayout": "right",
    "text": "Alberto é chef em Roma, Itália, e inventou pratos de massa exclusivos. Ele ficou famoso graças aos clientes que compartilharam imagens de suas belas refeições no Instagram e visitantes internacionais fazendo avaliações muito positivas de seu restaurante exclusivo no Facebook. Agora, Alberto tem que tomar uma importante decisão sobre o que ele deve fazer para desenvolver mais seu negócio.",
    "_graphic": {
      "alt": "Pessoa jantando e olhando para um celular.",
      "src": "course/en/images/05_tying_it_all_together/04_rising_star_chef.png",
      "attribution": ""
    },
    "imageHeading": "",
    "imageSubHeading": ""
  },
  {
    "_id": "c-360",
    "_parentId": "b-310",
    "_type": "component",
    "_component": "flipCard",
    "_classes": "",
    "_layout": "full",
    "title": "",
    "displayTitle": "",
    "body": "Clique nos cartões abaixo para ver a jornada de Alberto quando ele usa as soluções de informações do Facebook IQ para ajudar a informar e planejar a campanha.",
    "instruction": "",
    "_pageLevelProgress": {
      "_isEnabled": false
    },
    "_items": [{
        "frontImageSrc": "",
        "frontHeading": "<center>Usando os recursos do FBIQ</center>",
        "fontSizeHeading": "24px",
        "fontSizeText": "16px",
        "frontImgTop": "24px",
        "frontImgbottom": "",
        "frontImgleft": "",
        "frontImgright": "",
        "frontImgWidth": "30%",
        "frontImgHeight": "",
        "frontImgOpacity": "1",
        "padding": "12px 24px",
        "fontColor": "#ffffff",
        "frontListOfOptions": [
          ""
        ],
        "frontFooter": "",
        "frontFooterColor": "#808080",
        "frontFooterPadding": "12px",
        "backHeading": "",
        "backListOfOptions": [
          "Alberto usa o <b>Audience Insights</b> para aprender particularidades sobre as pessoas que seguem a Página do seu restaurante no Facebook. Ele descobre que muito pouco de seus seguidores estão na Itália; a maioria realmente é de outros países na UE. Examinando com mais atenção, ele descobre que a maioria está interessada em cozinhar em casa e em comida gourmet. Ele vai para o Facebook IQ para ver estudos sobre os hábitos de alimentação das pessoas no Facebook e Instagram. Depois de ler <i>Três mudanças na cultura da alimentação</i>, ele forma uma teoria de que kits de refeição poderiam ser um modo de expandir mais sua marca. Então, Alberto vê o <b>Cross-Border Insights</b> para comparar os prováveis custos de anunciar e a potencial competição em outros países."
        ],
        "textShadow": ""
      },
      {
        "frontImageSrc": "",
        "frontHeading": "<center>Ação</center>",
        "fontSizeHeading": "24px",
        "fontSizeText": "14px",
        "frontImgTop": "24px",
        "frontImgbottom": "",
        "frontImgleft": "",
        "frontImgright": "",
        "frontImgWidth": "30%",
        "frontImgHeight": "",
        "frontImgOpacity": "1",
        "padding": "12px 24px",
        "fontColor": "#ffffff",
        "frontListOfOptions": [
          ""
        ],
        "frontFooter": "",
        "frontFooterColor": "#808080",
        "frontFooterPadding": "12px",
        "backHeading": "",
        "backListOfOptions": [
          "Primeiro, Alberto adiciona uma seção Comprar à página do Facebook e apresenta alguns kits de refeição que podem ser enviados para outros países. Então, ele usa o que aprendeu com o Audience Insights e estudos de mercado do Facebook IQ para criar uma campanha altamente direcionada para vender kits de refeição para os seguidores de sua Página que gostam de cozinhar em casa e de fotografia de comida, e moram na Alemanha e França."
        ],
        "textShadow": ""
      }
    ],
    "_flipType": "singleFlip",
    "_flipTime": 400
  },
  {
    "_id": "c-370",
    "_parentId": "b-320",
    "_type": "component",
    "_component": "text",
    "_classes": "",
    "_layout": "full",
    "title": "",
    "displayTitle": "",
    "body": "Usando todas as ferramentas disponíveis para os profissionais de marketing do Facebook, Alberto conseguiu mais informações sobre seus clientes e uma nova maneira de desenvolver seu negócio que ele poderia não ter considerado.<br><br>Use os estudos, recursos e ferramentas fornecidos pelo Facebook IQ para ajudar a entender melhor seu público e desenvolver campanhas relevantes para as pessoas que você deseja alcançar. Informações oportunas podem ser veiculadas em sua caixa de entrada assinando o boletim informativo do Facebook IQ em <a href='http://facebook.com/iq' target='_blank'>facebook.com/iq</a>.",
    "instruction": "",
    "_pageLevelProgress": {
      "_isEnabled": false
    }
  },
  {
    "_id": "c-380",
    "_parentId": "b-330",
    "_type": "component",
    "_component": "co-jump",
    "_classes": "color-test",
    "_autoComplete": true,
    "_preLinkBody": "Clique no botão abaixo para concluir o curso. Observação: <a href='#'>clique aqui</a> para conferir se as barras de status de cada módulo estão completas.<br>",
    "_linkBody": "<div style = 'text-align:center;padding:8px;'><button class='buttons-action'><b>TERMINEI O CURSO</b></button></div><br> ",
    "_postLinkBody": "",
    "_link": "",
    "_pageLevelProgress": {
      "_isEnabled": false
    }
  }

]
